Après tout, elle avait pu être la phase deux.	PRO	ADV	ADV
Après tout, à son âge, il pourrait être votre père.	PRO	ADV	ADV
Au début, ils sont tous comme ça, quand ils cherchent la sœur.	ADJ	ADJ	ADJ
Avec la volonté de tout changer, une bonne fois pour toutes.	DET	DET	DET
Bien, vous pourriez aussi bien être au courant de tout.	PRO	ADV	ADV
Cette fille, elle faisait son boulot, après tout.	PRO	ADV	ADV
Dans ce cas, on risque de perdre notre temps tous les deux.	ADJ	ADJ	ADJ
Dans la vie de tous les jours, ils forment un couple heureux.	ADJ	ADJ	ADJ
Dans quelques jours, ils vont passer à la casserole, tous ces salauds.	ADJ	ADJ	ADJ
Dans quelques secondes, il allait avoir tous les chauffeurs sur le dos.	ADJ	ADJ	ADJ
Dès son plus jeune âge, il a eu tous les talents.	ADJ	ADJ	ADJ
Elle irritait ce besoin de connaître la vérité qui est au fond de tout homme.	DET	DET	DET
Elle qui avait mis tous les bâtons dans les roues.	ADJ	ADJ	ADJ
En effet, ils ont été pris sur tous les trônes.	ADJ	ADJ	ADJ
En un rien de temps, on aurait eu tous les flics sur le dos.	ADJ	ADJ	ADJ
Ensuite, tout le poids de son corps sur mon ventre.	ADV	ADV	ADV
Et il reprit son air, mais de tous ses poumons.	ADJ	ADJ	ADJ
Et si tous ces discours ne sont que des sornettes?	ADJ	ADJ	ADJ
Et à quatre heures, tous les jours!...	ADJ	ADJ	ADJ
Et ça devient de pire en pire tous les jours.	ADJ	ADJ	ADJ
Et, certains jours, il ne se sentait pas du tout un homme neuf.	ADJ	ADV	ADV
Il a beaucoup de filles dans son palais, tout le temps.	ADV	ADV	ADV
Il a passé tout son temps à répondre au téléphone depuis huit heures.	ADV	ADV	ADV
Il a tout le monde à ses trousses, non ?	ADV	ADV	ADV
Il aurait tout aussi bien pu se trouver sous un projecteur.	ADV	ADV	ADV
Il aurait tout donné pour avoir une brosse à dents.	ADV	ADV	ADJ
Il aurait tout fait pour ne plus voir sa figure.	ADV	ADV	ADV
Il avait tout perdu à deux heures moins le quart.	ADV	ADV	ADJ
Il banda tout son corps, chacun de ses muscles, chacun de ses tendons.	ADV	ADV	ADJ
Il consacrait tout son temps et toute son énergie au football.	ADV	ADV	ADJ
Il en a eu en tout pour deux millions de dollars américains.	PRO	ADV	ADV
Il en a une autre dont il parle tout le temps : la peinture.	ADV	ADV	ADV
Il est dans tous les états de la vie et dans toutes les conditions.	ADJ	ADJ	ADJ
Il faut que je quitte le pays à tout prix.	DET	DET	DET
Il faut que je réfléchisse un moment à tout ceci.	DET	DET	EDT
Il faut que nous cherchions un docteur tout de suite.	ADJ	ADV	ADV
Il ferma donc tous ses interrupteurs, ses cadrans, ses boutons.	ADJ	ADJ	ADJ
Il lui faudrait plusieurs jours encore pour les visiter tous.	ADJ	ADJ	ADJ
Il paraît tout jeune, pas plus de quinze ans.	ADV	ADV	ADV
Il pensait à elle, tout le temps à elle.	ADV	ADV	ADV
Il poussait tout le monde à vouloir toujours plus, toujours mieux.	ADV	ADV	ADV
Il prétendait que tous les hommes devraient avoir un dada.	ADJ	ADJ	ADJ
Il regarda sa montre, il avait tout le temps avant son cours.	ADV	ADV	ADV
Il tient le dossier tout contre lui, le dirlo.	ADJ	ADV	ADJ
Il veut que je lui change un chèque tout de suite.	ADJ	ADV	ADV
Il voyait tout le temps à des kilomètres plus loin.	ADV	ADV	ADV
Il y a six mois de ça, elle venait ici tous les soirs.	ADJ	ADJ	ADJ
Il était à son cabinet, comme tous les jours.	ADJ	ADJ	ADJ
Ils détruiront tous ceux qui se dresseront sur leur passage.	ADJ	ADJ	ADJ
Ils ont fait jouer les pompes pendant tout le jour.	ADV	ADV	ADJ
Ils ont tous, plus ou moins, la nostalgie du boniment.	ADJ	ADJ	ADJ
Ils pourraient être tous du même groupe, aussi bien.	ADJ	ADJ	ADJ
Ils sont là tous les deux, sur le seuil.	ADJ	ADJ	ADJ
Ils sont tous mariés, et ils adorent leurs femmes.	ADJ	ADJ	ADJ
Ils veulent tous, pour la dernière fois, le contempler.	ADJ	ADJ	ADJ
Ils vont tout faire pour la sortir de cette merde.	ADV	ADV	ADJ
Ils étaient déjà tous partis pour la vieille ferme à la sortie de la ville.	ADJ	ADJ	ADJ
Je commence à avoir une pétoche de tous les diables.	ADJ	ADJ	ADJ
Je comprends maintenant pourquoi elle a choisi de tout effacer.	DET	DET	DET
Je connaissais sur le bout des doigts tous les raisonnements que peut faire un flic.	ADJ	ADJ	ADJ
Je crois que les hommes, en tout pays et toujours, sont un spectacle médiocre.	DET	DET	DET
Je dresse une liste de tous les hommes qui la connaissaient.	ADJ	ADJ	ADJ
Je lui avais dit de tout balancer, cette nuit.	DET	DET	DET
Je passai mon doigt sur le bord du bureau tout en la regardant de côté.	ADJ	ADV	ADV
Je passe par ici tous les matins depuis plusieurs années.	ADJ	ADJ	ADJ
Je pense tout le temps à cette foule en ville.	ADV	ADV	ADV
Je prétends vous voir tous les jours, à la mode de notre pays.	ADJ	ADJ	ADJ
Je restai là un bon moment, à remâcher tous ces renseignements.	ADJ	ADJ	ADJ
Je sentais tout son corps qui tremblait contre le mien.	ADV	ADV	ADJ
Je soulève la chaise et le bonhomme, et je balance tout le paquet contre le mur.	ADV	ADV	ADJ
Je suis dans tous cette part qui est froissée par le milieu.	ADJ	ADJ	ADJ
Je suis les régates de très près et je connais presque tous les entraîneurs.	ADJ	ADJ	ADJ
Je vois tout le temps des affaires de cet ordre.	ADV	ADV	ADV
Je vous ai déjà tous interrogés, ces cinq derniers jours.	ADJ	ADJ	ADJ
La discrétion est un principe pour tout homme qui sait son monde.	DET	DET	DET
La famille, les cousins, tout le monde était là.	ADV	ADV	ADV
La mort... la fin de tout... étant le néant...	PRO	ADV	NOM
Le crime de ce soir va faire un raffut de tous les diables.	ADJ	ADJ	ADJ
Les acteurs étaient tous dans leurs loges ou dans les coulisses.	ADJ	ADJ	ADJ
Mais il était tout petit, il ne se souvient pas.	ADV	ADV	ADV
Mais les autres, ils sont tous impliqués dans cette histoire, non ?	ADJ	ADJ	ADJ
Mais voilà ce qui arrive quand on est tout seul.	ADV	ADV	ADV
On aurait dit la mère ou le père de tous les autres.	ADJ	ADJ	ADJ
On en est au point où il faut tout prendre en compte.	ADV	ADV	ADJ
On fait ça dans les règles, on résout tous les problèmes à la fois.	ADJ	ADJ	ADJ
On finit toujours par trouver une solution à tous les problèmes.	ADJ	ADJ	ADJ
On ne peut pas aller se plaindre à la police, ils doivent tous se tenir.	ADJ	ADJ	ADJ
On recommence bien tout le numéro cinquante millions de fois.	ADV	ADV	ADV
Parmi les médecins, les prédestinés entre tous sont les aliénistes.	PRO	ADJ	PRO
Pas du tout, je fous le camp avec lui.	ADJ	ADV	ADV
Pour les prévenir tous, il fallait se répartir le travail.	ADJ	ADJ	ADJ
Pour tout, il y a la façon de présenter les choses.	PRO	ADV	ADV
Puis un pompier tout seul, qui soutenait un autre homme.	ADJ	ADV	ADJ
Rien de tel que de les dresser tout de suite.	ADJ	ADV	ADV
Surtout quand on a tout fait pour se mettre dans le pétrin.	ADV	ADV	ADV
Une fois dans le bain, ça va tout seul.	ADV	ADV	ADV
Ça, il faut que je le fasse tout seul.	ADV	ADV	ADV
CONDITIONS: SENTENCE PROB > 0.4, SIZE > 10			
Number of sentence: 97			
